{
  "AWSTemplateFormatVersion": "2010-09-09",
  "Description": "This template enables roles and features of Windows Server. **WARNING** This template creates Amazon EC2 Windows instance and related resources. You will be billed for the AWS resources used if you create a stack from this template.",
  "Parameters": {
    "KeyName": {
      "Description": "Name of an existing EC2 KeyPair",
      "Type": "AWS::EC2::KeyPair::KeyName",
      "ConstraintDescription": "must be the name of an existing EC2 KeyPair.",
      "Default": "New"
    },
    "InstanceType": {
      "Description": "Amazon EC2 instance type",
      "Type": "String",
      "Default": "t2.micro",
      "ConstraintDescription": "must be a valid EC2 instance type."
    },
    "Roles": {
      "Description": "A SPACE seperated list of roles that you want to enable on this instance. Valid values are AD-Certificate, AD-Domain-Services, ADLDS, DHCP, DNS, Fax, File-Services, NPAS, Print-Services, Web-Server, and WDS.",
      "Type": "String",
      "Default": "None",
      "AllowedPattern": "(((AD\\-Certificate)|(AD\\-Domain\\-Services)|(ADLDS)|(DHCP)|(DNS)|(Fax)|(File\\-Services)|(NPAS)|(Print\\-Services)|(Web\\-Server)|(WDS))( ((AD\\-Certificate)|(AD\\-Domain\\-Services)|(ADLDS)|(DHCP)|(DNS)|(Fax)|(File\\-Services)|(NPAS)|(Print\\-Services)|(Web\\-Server)|(WDS)))*)|(None)"
    },
    "Features": {
      "Description": "A SPACE seperated list of features that you want to enable on this instance. Valid values are NET-Framework, BITS, BitLocker, BranchCache, CMAK, Desktop-Experience, DAMC, Failover-Clustering, GPMC, Ink-Handwriting, Internet-Print-Client, ISNS, LPR-Port-Monitor, MSMQ, Multipath-IO, NLB, PNRP, qWave, Remote-Assistance, RDC, RPC-over-HTTP-Proxy, Simple-TCPIP, SMTP-Server, SNMP-Services, Storage-Mgr-SANS, Subsystem-UNIX-Apps, Telnet-Client, Telnet-Server, TFTP-Client, Biometric-Framework, Windows-Internal-DB, PowerShell-ISE, Backup-Features, Migration, WSRM, TIFF-IFilter, WinRM-IIS-Ext, WINS-Server, Wireless-Networking, and XPS-Viewer.",
      "Type": "String",
      "Default": "None",
      "AllowedPattern": "(((NET\\-Framework)|(BITS)|(BitLocker)|(BranchCache)|(CMAK)|(Desktop\\-Experience)|(DAMC)|(Failover\\-Clustering)|(GPMC)|(Ink\\-Handwriting)|(Internet\\-Print\\-Client)|(ISNS)|(LPR\\-Port\\-Monitor)|(MSMQ)|(Multipath\\-IO)|(NLB)|(PNRP)|(qWave)|(Remote\\-Assistance)|(RDC)|(RPC\\-over\\-HTTP\\-Proxy)|(Simple\\-TCPIP)|(SMTP\\-Server)|(SNMP\\-Services)|(Storage\\-Mgr\\-SANS)|(Subsystem\\-UNIX\\-Apps)|(Telnet\\-Client)|(Telnet\\-Server)|(TFTP\\-Client)|(Biometric\\-Framework)|(Windows\\-Internal\\-DB)|(PowerShell\\-ISE)|(Backup\\-Features)|(Migration)|(WSRM)|(TIFF\\-IFilter)|(WinRM\\-IIS\\-Ext)|(WINS\\-Server)|(Wireless\\-Networking)|(XPS\\-Viewer))( ((NET\\-Framework)|(BITS)|(BitLocker)|(BranchCache)|(CMAK)|(Desktop\\-Experience)|(DAMC)|(Failover\\-Clustering)|(GPMC)|(Ink\\-Handwriting)|(Internet\\-Print\\-Client)|(ISNS)|(LPR\\-Port\\-Monitor)|(MSMQ)|(Multipath\\-IO)|(NLB)|(PNRP)|(qWave)|(Remote\\-Assistance)|(RDC)|(RPC\\-over\\-HTTP\\-Proxy)|(Simple\\-TCPIP)|(SMTP\\-Server)|(SNMP\\-Services)|(Storage\\-Mgr\\-SANS)|(Subsystem\\-UNIX\\-Apps)|(Telnet\\-Client)|(Telnet\\-Server)|(TFTP\\-Client)|(Biometric\\-Framework)|(Windows\\-Internal\\-DB)|(PowerShell\\-ISE)|(Backup\\-Features)|(Migration)|(WSRM)|(TIFF\\-IFilter)|(WinRM\\-IIS\\-Ext)|(WINS\\-Server)|(Wireless\\-Networking)|(XPS\\-Viewer)))*( )*)|(None)"
    },
    "SourceCidrForRDP": {
      "Description": "IP Cidr from which you are likely to RDP into the instances. You can add rules later by modifying the created security groups e.g. 54.32.98.160/32",
      "Type": "String",
      "MinLength": "9",
      "MaxLength": "18",
      "AllowedPattern": "^([0-9]+\\.){3}[0-9]+\\/[0-9]+$",
      "Default": "0.0.0.0/0"
    },
    "PublicVPC": {
      "Description": "Amazon EC2 instance type",
      "Type": "String",
      "Default": "vpc-982a1de3"
    },
    "AMI": {
      "Description": "2012R2 AMI",
      "Type": "String",
      "Default": "ami-2a9a1655"
    },
    "PublicSubNet": {
      "Description": "SubNet Id",
      "Type": "String",
      "Default": "subnet-f4be32be"
    }
  },
  "Mappings": {
    "AWSRegion2AMI": {
      "us-east-1": {
        "Windows2008r2": "ami-f058458a",
        "Windows2012r2": "ami-a64855dc"
      },
      "us-west-2": {
        "Windows2008r2": "ami-3cc94a44",
        "Windows2012r2": "ami-a5d053dd"
      },
      "us-west-1": {
        "Windows2008r2": "ami-a40009c4",
        "Windows2012r2": "ami-4a020b2a"
      },
      "eu-west-1": {
        "Windows2008r2": "ami-eb760692",
        "Windows2012r2": "ami-6d601014"
      },
      "eu-west-2": {
        "Windows2008r2": "ami-d60beeb1",
        "Windows2012r2": "ami-6a15f00d"
      },
      "eu-west-3": {
        "Windows2008r2": "ami-109d2b6d",
        "Windows2012r2": "ami-a79d2bda"
      },
      "eu-central-1": {
        "Windows2008r2": "ami-ad2d4cc2",
        "Windows2012r2": "ami-f8305197"
      },
      "ap-northeast-1": {
        "Windows2008r2": "ami-7bb4c91d",
        "Windows2012r2": "ami-19b4c97f"
      },
      "ap-northeast-2": {
        "Windows2008r2": "ami-a95af8c7",
        "Windows2012r2": "ami-2959fb47"
      },
      "ap-northeast-3": {
        "Windows2008r2": "ami-271c125a",
        "Windows2012r2": "ami-8c1c12f1"
      },
      "ap-southeast-1": {
        "Windows2008r2": "ami-85d092f9",
        "Windows2012r2": "ami-8bd597f7"
      },
      "ap-southeast-2": {
        "Windows2008r2": "ami-b9c500db",
        "Windows2012r2": "ami-01c30663"
      },
      "ap-south-1": {
        "Windows2008r2": "ami-0d174a62",
        "Windows2012r2": "ami-fd0d5092"
      },
      "us-east-2": {
        "Windows2008r2": "ami-dff8ccba",
        "Windows2012r2": "ami-1efbcf7b"
      },
      "ca-central-1": {
        "Windows2008r2": "ami-c47ffba0",
        "Windows2012r2": "ami-63068207"
      },
      "sa-east-1": {
        "Windows2008r2": "ami-0f256c63",
        "Windows2012r2": "ami-ad256cc1"
      },
      "cn-north-1": {
        "Windows2008r2": "ami-69d70b04",
        "Windows2012r2": "ami-06c8146b"
      },
      "cn-northwest-1": {
        "Windows2008r2": "ami-ced4c0ac",
        "Windows2012r2": "ami-a32034c1"
      }
    }
  },
  "Resources": {
    "InstanceSecurityGroup": {
      "Type": "AWS::EC2::SecurityGroup",
      "Properties": {
        "GroupDescription": "Enable RDP",
        "SecurityGroupIngress": [
          {
            "IpProtocol": "tcp",
            "FromPort": "3389",
            "ToPort": "3389",
            "CidrIp": {
              "Ref": "SourceCidrForRDP"
            }
          },
          {
            "IpProtocol": "tcp",
            "FromPort": "80",
            "ToPort": "80",
            "CidrIp": {
              "Ref": "SourceCidrForRDP"
            }
          }
        ],
        "VpcId": {
          "Ref": "PublicVPC"
        }
      }
    },
    "WindowsServer": {
      "Type": "AWS::EC2::Instance",
      "Metadata": {
        "AWS::CloudFormation::Init": {
          "config": {
            "Packages": {
              "msi": {
                "awscli": "https://s3.amazonaws.com/aws-cli/AWSCLI64.msi",
                "7zip_18.01": "https://www.7-zip.org/a/7z1801-x64.msi"
              }
            },
            "files": {
              "c:\\cfn\\cfn-hup.conf": {
                "content": {
                  "Fn::Join": [
                    "",
                    [
                      "[main]\n",
                      "stack=",
                      {
                        "Ref": "AWS::StackId"
                      },
                      "\n",
                      "region=",
                      {
                        "Ref": "AWS::Region"
                      },
                      "\n"
                    ]
                  ]
                }
              },
              "c:\\cfn\\scripts\\CreateLocalAdminAccount.ps1": {
                "content": {
                  "Fn::Join": [
                    "",
                    [
                      "$Username = \"testuser\"\n",
                      "$Password = \"P@ssw0rd\"\n",
                      "$group = \"Administrators\"\n",
                      "$adsi = [ADSI]\"WinNT://$env:COMPUTERNAME\"\n",
                      "$existing = $adsi.Children | where {$_.SchemaClassName -eq 'user' -and $_.Name -eq $Username }\n",
                      "if ($existing -eq $null) {\n",
                      "& NET USER $Username $Password /add /y /expires:never\n",
                      "& NET LOCALGROUP $group $Username /add }\n",
                      "else { $existing.SetPassword($Password) }\n",
                      "& WMIC USERACCOUNT WHERE \"Name='$Username'\" SET PasswordExpires=FALSE\n"
                    ]
                  ]
                },
                "c:\\cfn\\hooks.d\\cfn-auto-reloader.conf": {
                  "content": {
                    "Fn::Join": [
                      "",
                      [
                        "[cfn-auto-reloader-hook]\n",
                        "triggers=post.update\n",
                        "path=Resources.WindowsServer.Metadata.AWS::CloudFormation::Init\n",
                        "action=cfn-init.exe -v -s ",
                        {
                          "Ref": "AWS::StackId"
                        },
                        " -r WindowsServer",
                        " --region ",
                        {
                          "Ref": "AWS::Region"
                        },
                        "\n"
                      ]
                    ]
                  }
                }
              },
              "c:\\cfn\\scripts\\SettingWinRM.ps1": {
                "content": {
                  "Fn::Join": [
                    "",
                    [
                      "#Turning off firewall\n",
                      "& NetSh Advfirewall set allprofiles state off\n",
                      "& cmd.exe /c winrm quickconfig -q\n",
                      "& cmd.exe /c winrm quickconfig '-transport:http'\n",
                      "& cmd.exe /c winrm set \"winrm/config\" '@{MaxTimeoutms=\"1800000\"}'\n",
                      "& cmd.exe /c winrm set \"winrm/config/winrs\" '@{MaxMemoryPerShellMB=\"512\"}'\n",
                      "& cmd.exe /c winrm set \"winrm/config/service\" '@{AllowUnencrypted=\"true\"}'\n",
                      "& cmd.exe /c winrm set \"winrm/config/client\" '@{AllowUnencrypted=\"true\"}'\n",
                      "& cmd.exe /c winrm set \"winrm/config/service/auth\" '@{Basic=\"true\"}'\n",
                      "& cmd.exe /c winrm set \"winrm/config/client/auth\" '@{Basic=\"true\"}'\n",
                      "& cmd.exe /c winrm set \"winrm/config/service/auth\" '@{CredSSP=\"true\"}'\n",
                      "& cmd.exe /c winrm set \"winrm/config/listener?Address=*+Transport=HTTP\" '@{Port=\"5985\"}'\n",
                      "stop-service -name winrm -verbose -force\n",
                      "& cmd.exe /c sc config winrm start= auto\n",
                      "start-service -name winrm -verbose\n"
                    ]
                  ]
                }
              },
              "c:\\cfn\\scripts\\IISinstallation.ps1": {
                "content": {
                  "Fn::Join": [
                    "",
                    [
                      "Install-WindowsFeature -name Web-Server -IncludeManagementTools"
                    ]
                  ]
                }
              }
            },
            "commands": {
              "1-CreateLocalAccount": {
                "command": "powershell -file c:\\cfn\\scripts\\CreateLocalAdminAccount.ps1",
                "waitAfterCompletion": 1
              },
              "2-WinRMSettings": {
                "command": "powershell -file c:\\cfn\\scripts\\SettingWinRM.ps1",
                "waitAfterCompletion": 1
              },
              "3-WinRMSettings": {
                "command": "powershell -file c:\\cfn\\scripts\\IISinstallation.ps1",
                "waitAfterCompletion": 1
              },
              "4-install-roles": {
                "command": {
                  "Fn::Join": [
                    "",
                    [
                      "if not \"None\" EQU \"",
                      {
                        "Ref": "Roles"
                      },
                      "\" (servermanagercmd -install ",
                      {
                        "Ref": "Roles"
                      },
                      " -restart)"
                    ]
                  ]
                }
              },
              "5-install-features": {
                "command": {
                  "Fn::Join": [
                    "",
                    [
                      "if not \"None\" EQU \"",
                      {
                        "Ref": "Features"
                      },
                      "\" (servermanagercmd -install ",
                      {
                        "Ref": "Features"
                      },
                      " -restart)"
                    ]
                  ]
                }
              },
              "6-signal-success": {
                "command": {
                  "Fn::Join": [
                    "",
                    [
                      "cfn-signal.exe -e %ERRORLEVEL% \"",
                      {
                        "Fn::Base64": {
                          "Ref": "WindowsServerWaitHandle"
                        }
                      },
                      "\""
                    ]
                  ]
                }
              }
            },
            "services": {
              "windows": {
                "cfn-hup": {
                  "enabled": "true",
                  "ensureRunning": "true",
                  "files": [
                    "c:\\cfn\\cfn-hup.conf",
                    "c:\\cfn\\hooks.d\\cfn-auto-reloader.conf"
                  ]
                }
              }
            }
          }
        }
      },
      "Properties": {
        "InstanceType": {
          "Ref": "InstanceType"
        },
        "ImageId": {
          "Ref": "AMI"
        },
        "KeyName": {
          "Ref": "KeyName"
        },
        "UserData": {
          "Fn::Base64": {
            "Fn::Join": [
              "",
              [
                "<script>\n",
                "cfn-init.exe -v -s ",
                {
                  "Ref": "AWS::StackId"
                },
                " -r WindowsServer",
                " --region ",
                {
                  "Ref": "AWS::Region"
                },
                "\n",
                "</script>"
              ]
            ]
          }
        },
        "BlockDeviceMappings": [{
         "DeviceName" : "xvdb",
          "Ebs" : {
           "DeleteOnTermination" : "True",
             "VolumeSize" : "10"
            }
   
   }],
        "NetworkInterfaces": [
          {
            "AssociatePublicIpAddress": "True",
            "DeviceIndex": "0",
            "GroupSet": [
              {
                "Ref": "InstanceSecurityGroup"
              }
            ],
            "SubnetId": {
              "Ref": "PublicSubNet"
            }
          }
        ]
      }
    },
    "WindowsServerWaitHandle": {
      "Type": "AWS::CloudFormation::WaitConditionHandle"
    },
    "WindowsServerWaitCondition": {
      "Type": "AWS::CloudFormation::WaitCondition",
      "DependsOn": "WindowsServer",
      "Properties": {
        "Handle": {
          "Ref": "WindowsServerWaitHandle"
        },
        "Timeout": "1800"
      }
    }
  },
  "Outputs": {
    "RolesEnabled": {
      "Value": {
        "Ref": "Roles"
      },
      "Description": "Roles enabled on this instance."
    },
    "FeaturesEnabled": {
      "Value": {
        "Ref": "Features"
      },
      "Description": "Features enabled on this instance."
    }
  }
}